"USV_1993","USV_2014","EXT_KM2"
"Bosques templados","Bosques templados",49190
"Bosques templados","Uso antrópico",1798
"Bosques templados","Selvas subhúmedas",820
"Bosques templados","Bosque mesófilo de montana",550
"Bosques templados","Pastizales",95
"Bosques templados","Selvas húmedas",95
"Bosques templados","Otros tipos de vegetación",51
"Bosques templados","Matorral xerófilo",26
"Bosques templados","Sin vegetación aparente",13
"Bosques templados","Cuerpos de agua",4
"Bosques templados","Vegetación de galería",1
"Bosques templados","Vegetación halófila",0
"Bosques templados","Vegetación hidrófila",0
"Bosque mesófilo de montana","Bosque mesófilo de montana",2219
"Bosque mesófilo de montana","Uso antrópico",157
"Bosque mesófilo de montana","Bosques templados",132
"Bosque mesófilo de montana","Selvas húmedas",84
"Bosque mesófilo de montana","Cuerpos de agua",1
"Bosque mesófilo de montana","Selvas subhúmedas",1
"Bosque mesófilo de montana","Matorral xerófilo",0
"Bosque mesófilo de montana","Otros tipos de vegetación",0
"Bosque mesófilo de montana","Pastizales",0
"Bosque mesófilo de montana","Sin vegetación aparente",0
"Bosque mesófilo de montana","Vegetación de galería",0
"Bosque mesófilo de montana","Vegetación halófila",0
"Bosque mesófilo de montana","Vegetación hidrófila",0
"Cuerpos de agua","Cuerpos de agua",3109
"Cuerpos de agua","Vegetación hidrófila",66
"Cuerpos de agua","Sin vegetación aparente",63
"Cuerpos de agua","Uso antrópico",49
"Cuerpos de agua","Selvas subhúmedas",16
"Cuerpos de agua","Bosques templados",5
"Cuerpos de agua","Selvas húmedas",5
"Cuerpos de agua","Matorral xerófilo",3
"Cuerpos de agua","Otros tipos de vegetación",1
"Cuerpos de agua","Vegetación halófila",1
"Cuerpos de agua","Bosque mesófilo de montana",0
"Cuerpos de agua","Pastizales",0
"Cuerpos de agua","Vegetación de galería",0
"Matorral xerófilo","Matorral xerófilo",72782
"Matorral xerófilo","Uso antrópico",595
"Matorral xerófilo","Vegetación halófila",414
"Matorral xerófilo","Otros tipos de vegetación",207
"Matorral xerófilo","Sin vegetación aparente",101
"Matorral xerófilo","Selvas subhúmedas",75
"Matorral xerófilo","Vegetación de galería",73
"Matorral xerófilo","Pastizales",65
"Matorral xerófilo","Bosques templados",55
"Matorral xerófilo","Vegetación hidrófila",42
"Matorral xerófilo","Cuerpos de agua",11
"Matorral xerófilo","Bosque mesófilo de montana",0
"Matorral xerófilo","Selvas húmedas",0
"Otros tipos de vegetación","Otros tipos de vegetación",10913
"Otros tipos de vegetación","Uso antrópico",237
"Otros tipos de vegetación","Bosques templados",234
"Otros tipos de vegetación","Selvas subhúmedas",94
"Otros tipos de vegetación","Matorral xerófilo",48
"Otros tipos de vegetación","Vegetación hidrófila",48
"Otros tipos de vegetación","Selvas húmedas",25
"Otros tipos de vegetación","Sin vegetación aparente",22
"Otros tipos de vegetación","Cuerpos de agua",9
"Otros tipos de vegetación","Pastizales",5
"Otros tipos de vegetación","Vegetación de galería",1
"Otros tipos de vegetación","Bosque mesófilo de montana",0
"Otros tipos de vegetación","Vegetación halófila",0
"Pastizales","Pastizales",5907
"Pastizales","Bosques templados",211
"Pastizales","Uso antrópico",148
"Pastizales","Matorral xerófilo",117
"Pastizales","Selvas subhúmedas",21
"Pastizales","Sin vegetación aparente",13
"Pastizales","Otros tipos de vegetación",11
"Pastizales","Vegetación de galería",5
"Pastizales","Vegetación halófila",2
"Pastizales","Bosque mesófilo de montana",1
"Pastizales","Cuerpos de agua",1
"Pastizales","Selvas húmedas",0
"Pastizales","Vegetación hidrófila",0
"Selvas húmedas","Selvas húmedas",21889
"Selvas húmedas","Uso antrópico",989
"Selvas húmedas","Selvas subhúmedas",311
"Selvas húmedas","Vegetación hidrófila",170
"Selvas húmedas","Bosque mesófilo de montana",114
"Selvas húmedas","Bosques templados",31
"Selvas húmedas","Otros tipos de vegetación",13
"Selvas húmedas","Cuerpos de agua",12
"Selvas húmedas","Sin vegetación aparente",4
"Selvas húmedas","Matorral xerófilo",0
"Selvas húmedas","Pastizales",0
"Selvas húmedas","Vegetación de galería",0
"Selvas húmedas","Vegetación halófila",0
"Selvas subhúmedas","Selvas subhúmedas",22578
"Selvas subhúmedas","Uso antrópico",1571
"Selvas subhúmedas","Bosques templados",736
"Selvas subhúmedas","Selvas húmedas",666
"Selvas subhúmedas","Cuerpos de agua",64
"Selvas subhúmedas","Bosque mesófilo de montana",46
"Selvas subhúmedas","Vegetación hidrófila",32
"Selvas subhúmedas","Matorral xerófilo",24
"Selvas subhúmedas","Otros tipos de vegetación",19
"Selvas subhúmedas","Sin vegetación aparente",19
"Selvas subhúmedas","Vegetación de galería",18
"Selvas subhúmedas","Pastizales",9
"Selvas subhúmedas","Vegetación halófila",6
"Sin vegetación aparente","Sin vegetación aparente",4766
"Sin vegetación aparente","Vegetación hidrófila",138
"Sin vegetación aparente","Cuerpos de agua",86
"Sin vegetación aparente","Matorral xerófilo",51
"Sin vegetación aparente","Vegetación halófila",28
"Sin vegetación aparente","Uso antrópico",21
"Sin vegetación aparente","Bosques templados",13
"Sin vegetación aparente","Otros tipos de vegetación",9
"Sin vegetación aparente","Selvas húmedas",3
"Sin vegetación aparente","Selvas subhúmedas",2
"Sin vegetación aparente","Bosque mesófilo de montana",0
"Sin vegetación aparente","Pastizales",0
"Sin vegetación aparente","Vegetación de galería",0
"Uso antrópico","Uso antrópico",17645
"Uso antrópico","Bosques templados",1662
"Uso antrópico","Selvas subhúmedas",1585
"Uso antrópico","Selvas húmedas",460
"Uso antrópico","Matorral xerófilo",272
"Uso antrópico","Vegetación hidrófila",214
"Uso antrópico","Bosque mesófilo de montana",127
"Uso antrópico","Otros tipos de vegetación",81
"Uso antrópico","Pastizales",60
"Uso antrópico","Cuerpos de agua",28
"Uso antrópico","Vegetación halófila",28
"Uso antrópico","Sin vegetación aparente",24
"Uso antrópico","Vegetación de galería",6
"Vegetación de galería","Vegetación de galería",276
"Vegetación de galería","Uso antrópico",30
"Vegetación de galería","Matorral xerófilo",28
"Vegetación de galería","Selvas subhúmedas",10
"Vegetación de galería","Pastizales",6
"Vegetación de galería","Vegetación hidrófila",2
"Vegetación de galería","Bosques templados",1
"Vegetación de galería","Vegetación halófila",1
"Vegetación de galería","Bosque mesófilo de montana",0
"Vegetación de galería","Cuerpos de agua",0
"Vegetación de galería","Otros tipos de vegetación",0
"Vegetación de galería","Selvas húmedas",0
"Vegetación de galería","Sin vegetación aparente",0
"Vegetación halófila","Vegetación halófila",9834
"Vegetación halófila","Uso antrópico",131
"Vegetación halófila","Vegetación hidrófila",117
"Vegetación halófila","Matorral xerófilo",95
"Vegetación halófila","Sin vegetación aparente",92
"Vegetación halófila","Selvas subhúmedas",38
"Vegetación halófila","Cuerpos de agua",15
"Vegetación halófila","Vegetación de galería",11
"Vegetación halófila","Pastizales",6
"Vegetación halófila","Otros tipos de vegetación",1
"Vegetación halófila","Bosques templados",0
"Vegetación halófila","Bosque mesófilo de montana",0
"Vegetación halófila","Selvas húmedas",0
"Vegetación hidrófila","Vegetación hidrófila",13090
"Vegetación hidrófila","Uso antrópico",262
"Vegetación hidrófila","Selvas húmedas",193
"Vegetación hidrófila","Cuerpos de agua",123
"Vegetación hidrófila","Sin vegetación aparente",106
"Vegetación hidrófila","Matorral xerófilo",35
"Vegetación hidrófila","Otros tipos de vegetación",27
"Vegetación hidrófila","Selvas subhúmedas",23
"Vegetación hidrófila","Vegetación halófila",23
"Vegetación hidrófila","Vegetación de galería",7
"Vegetación hidrófila","Bosques templados",0
"Vegetación hidrófila","Bosque mesófilo de montana",0
"Vegetación hidrófila","Pastizales",0
