"Anio","Bacterias_algas_y_hongos","Plantas","Invertebrados","Vertebrados"
"""1827""",0,2,0,0
"""1828""",0,2,0,0
"""1829""",0,2,0,0
"""1830""",0,2,0,0
"""1831""",0,2,0,0
"""1832""",0,2,0,0
"""1833""",0,2,0,0
"""1834""",0,2,0,0
"""1835""",0,2,0,0
"""1836""",0,2,0,0
"""1837""",0,2,0,0
"""1838""",0,2,0,0
"""1839""",0,2,0,0
"""1840""",0,2,0,0
"""1841""",0,4,0,0
"""1842""",0,5,0,0
"""1843""",0,5,0,0
"""1844""",0,5,0,0
"""1845""",0,5,0,0
"""1846""",0,5,0,0
"""1847""",0,5,0,0
"""1848""",0,5,0,0
"""1849""",0,7,0,0
"""1850""",0,7,0,0
"""1851""",0,7,0,0
"""1852""",0,8,0,0
"""1853""",0,10,0,0
"""1854""",0,16,0,0
"""1855""",0,23,0,0
"""1856""",0,25,0,0
"""1857""",0,26,0,0
"""1858""",0,26,0,0
"""1859""",0,26,0,0
"""1860""",0,27,0,0
"""1861""",0,27,0,0
"""1862""",0,27,0,0
"""1863""",0,27,0,0
"""1864""",0,27,0,0
"""1865""",0,34,0,0
"""1866""",0,40,0,0
"""1867""",0,41,0,0
"""1868""",0,41,0,0
"""1869""",0,41,0,0
"""1870""",0,41,0,0
"""1871""",0,41,0,0
"""1872""",0,41,0,0
"""1873""",0,41,0,0
"""1874""",0,41,0,0
"""1875""",0,43,0,0
"""1876""",0,43,0,0
"""1877""",0,43,0,0
"""1878""",0,43,1,0
"""1879""",0,43,1,0
"""1880""",0,43,1,0
"""1881""",0,43,1,0
"""1882""",0,43,1,0
"""1883""",0,44,1,0
"""1884""",0,44,1,0
"""1885""",0,46,1,0
"""1886""",0,46,1,0
"""1887""",0,46,1,0
"""1888""",0,48,1,0
"""1889""",0,67,1,0
"""1890""",0,73,1,0
"""1891""",0,81,1,0
"""1892""",0,82,1,0
"""1893""",0,85,1,1
"""1894""",0,86,1,1
"""1895""",0,87,1,1
"""1896""",0,88,1,1
"""1897""",0,91,1,1
"""1898""",0,92,1,1
"""1899""",0,93,1,1
"""1900""",0,94,1,1
"""1901""",0,94,1,1
"""1902""",0,94,1,1
"""1903""",0,94,1,1
"""1904""",0,94,1,5
"""1905""",0,99,1,5
"""1906""",0,102,1,5
"""1907""",0,107,1,5
"""1908""",0,110,1,5
"""1909""",0,110,1,5
"""1910""",1,130,1,5
"""1911""",1,131,1,5
"""1912""",1,132,1,5
"""1913""",1,132,1,5
"""1914""",1,132,1,5
"""1915""",1,132,1,5
"""1916""",1,132,1,5
"""1917""",1,133,1,5
"""1918""",1,133,1,5
"""1919""",1,133,1,5
"""1920""",1,133,1,5
"""1921""",1,135,3,7
"""1922""",1,137,3,8
"""1923""",1,137,3,9
"""1924""",1,137,3,9
"""1925""",5,146,3,9
"""1926""",5,151,3,9
"""1927""",5,151,3,9
"""1928""",5,151,3,9
"""1929""",7,151,3,9
"""1930""",7,158,4,9
"""1931""",7,160,4,9
"""1932""",7,231,4,10
"""1933""",7,348,4,10
"""1934""",10,363,4,10
"""1935""",10,378,4,12
"""1936""",10,392,4,13
"""1937""",10,413,4,13
"""1938""",10,438,4,13
"""1939""",11,480,4,18
"""1940""",12,485,4,18
"""1941""",12,488,4,20
"""1942""",12,488,4,22
"""1943""",12,492,4,22
"""1944""",12,503,4,22
"""1945""",12,505,4,22
"""1946""",12,511,4,24
"""1947""",12,541,4,26
"""1948""",12,562,4,27
"""1949""",13,571,4,29
"""1950""",14,598,4,30
"""1951""",14,608,4,32
"""1952""",16,629,4,34
"""1953""",18,649,4,41
"""1954""",18,657,4,49
"""1955""",19,671,4,64
"""1956""",19,691,6,65
"""1957""",19,734,7,75
"""1958""",21,863,8,91
"""1959""",21,901,8,100
"""1960""",22,935,12,106
"""1961""",25,957,13,107
"""1962""",25,1011,13,116
"""1963""",27,1149,13,167
"""1964""",28,1205,13,177
"""1965""",29,1328,13,197
"""1966""",30,1460,14,213
"""1967""",31,1673,14,235
"""1968""",32,1843,15,235
"""1969""",32,1936,15,270
"""1970""",34,2177,15,270
"""1971""",35,2264,29,295
"""1972""",36,2333,29,314
"""1973""",37,2505,53,392
"""1974""",39,2648,53,401
"""1975""",42,2884,57,409
"""1976""",42,3107,57,417
"""1977""",46,3305,63,432
"""1978""",46,3469,66,445
"""1979""",47,3688,70,473
"""1980""",48,3947,77,594
"""1981""",59,4265,79,663
"""1982""",60,4713,85,731
"""1983""",61,5248,88,930
"""1984""",66,5545,90,993
"""1985""",67,5969,94,1028
"""1986""",68,6392,115,1075
"""1987""",73,6810,133,1105
"""1988""",75,7474,147,1105
"""1989""",76,7839,175,1264
"""1990""",79,8165,267,1388
"""1991""",80,8561,312,1481
"""1992""",83,8810,336,1598
"""1993""",86,8971,387,1733
"""1994""",94,9996,445,1789
"""1995""",100,10533,458,1790
"""1996""",101,10750,469,1792
"""1997""",112,11198,473,1794
"""1998""",140,11736,484,1796
"""1999""",157,12023,513,1810
"""2000""",167,12345,536,1811
"""2001""",180,12519,550,1812
"""2002""",190,13380,557,1813
"""2003""",191,14302,569,1815
"""2004""",194,15698,606,2082
"""2005""",196,17522,636,2228
"""2006""",199,17709,656,2233
"""2007""",200,18314,720,2236
"""2008""",206,18470,759,2237
"""2009""",227,18647,820,2254
"""2010""",291,18944,901,2426
"""2011""",297,19146,996,2427
"""2012""",297,19458,997,2428
"""2013""",298,19926,999,2505
"""2014""",353,20591,1000,2508
"""2015""",354,21388,1001,2511
"""2016""",400,21978,1002,2513
"""2017""",472,23075,1003,2519
"""2018""",507,24622,1007,2522
"""2019""",524,27048,1008,2539
"""2020""",535,28442,1009,2550
"""2021""",535,28442,1009,2550
"""2022""",535,28442,1009,2550
